/data/users/yhshin/EmJetAnalysis/Analysis-20171002-v2/mass_X_d_2000_mass_pi_d_5_tau_pi_d_0p1/EmergingJets_mass_X_d_2000_mass_pi_d_5_tau_pi_d_0p1_TuneCUETP8M1_13TeV_pythia8Mod/Analysis-20171002/171003_044926/0000/ntuple_10.root
/data/users/yhshin/EmJetAnalysis/Analysis-20171002-v2/mass_X_d_2000_mass_pi_d_5_tau_pi_d_0p1/EmergingJets_mass_X_d_2000_mass_pi_d_5_tau_pi_d_0p1_TuneCUETP8M1_13TeV_pythia8Mod/Analysis-20171002/171003_044926/0000/ntuple_11.root
/data/users/yhshin/EmJetAnalysis/Analysis-20171002-v2/mass_X_d_2000_mass_pi_d_5_tau_pi_d_0p1/EmergingJets_mass_X_d_2000_mass_pi_d_5_tau_pi_d_0p1_TuneCUETP8M1_13TeV_pythia8Mod/Analysis-20171002/171003_044926/0000/ntuple_12.root
/data/users/yhshin/EmJetAnalysis/Analysis-20171002-v2/mass_X_d_2000_mass_pi_d_5_tau_pi_d_0p1/EmergingJets_mass_X_d_2000_mass_pi_d_5_tau_pi_d_0p1_TuneCUETP8M1_13TeV_pythia8Mod/Analysis-20171002/171003_044926/0000/ntuple_13.root
/data/users/yhshin/EmJetAnalysis/Analysis-20171002-v2/mass_X_d_2000_mass_pi_d_5_tau_pi_d_0p1/EmergingJets_mass_X_d_2000_mass_pi_d_5_tau_pi_d_0p1_TuneCUETP8M1_13TeV_pythia8Mod/Analysis-20171002/171003_044926/0000/ntuple_1.root
/data/users/yhshin/EmJetAnalysis/Analysis-20171002-v2/mass_X_d_2000_mass_pi_d_5_tau_pi_d_0p1/EmergingJets_mass_X_d_2000_mass_pi_d_5_tau_pi_d_0p1_TuneCUETP8M1_13TeV_pythia8Mod/Analysis-20171002/171003_044926/0000/ntuple_2.root
/data/users/yhshin/EmJetAnalysis/Analysis-20171002-v2/mass_X_d_2000_mass_pi_d_5_tau_pi_d_0p1/EmergingJets_mass_X_d_2000_mass_pi_d_5_tau_pi_d_0p1_TuneCUETP8M1_13TeV_pythia8Mod/Analysis-20171002/171003_044926/0000/ntuple_4.root
/data/users/yhshin/EmJetAnalysis/Analysis-20171002-v2/mass_X_d_2000_mass_pi_d_5_tau_pi_d_0p1/EmergingJets_mass_X_d_2000_mass_pi_d_5_tau_pi_d_0p1_TuneCUETP8M1_13TeV_pythia8Mod/Analysis-20171002/171003_044926/0000/ntuple_5.root
/data/users/yhshin/EmJetAnalysis/Analysis-20171002-v2/mass_X_d_2000_mass_pi_d_5_tau_pi_d_0p1/EmergingJets_mass_X_d_2000_mass_pi_d_5_tau_pi_d_0p1_TuneCUETP8M1_13TeV_pythia8Mod/Analysis-20171002/171003_044926/0000/ntuple_6.root
/data/users/yhshin/EmJetAnalysis/Analysis-20171002-v2/mass_X_d_2000_mass_pi_d_5_tau_pi_d_0p1/EmergingJets_mass_X_d_2000_mass_pi_d_5_tau_pi_d_0p1_TuneCUETP8M1_13TeV_pythia8Mod/Analysis-20171002/171003_044926/0000/ntuple_7.root
/data/users/yhshin/EmJetAnalysis/Analysis-20171002-v2/mass_X_d_2000_mass_pi_d_5_tau_pi_d_0p1/EmergingJets_mass_X_d_2000_mass_pi_d_5_tau_pi_d_0p1_TuneCUETP8M1_13TeV_pythia8Mod/Analysis-20171002/171003_044926/0000/ntuple_8.root
/data/users/yhshin/EmJetAnalysis/Analysis-20171002-v2/mass_X_d_2000_mass_pi_d_5_tau_pi_d_0p1/EmergingJets_mass_X_d_2000_mass_pi_d_5_tau_pi_d_0p1_TuneCUETP8M1_13TeV_pythia8Mod/Analysis-20171002/171003_044926/0000/ntuple_9.root
